{
  "data": [
    {
      "id": 670,
      "name": "Junto feedback and enhancements map",
      "desc": "",
      "link": "",
      "permission": "commons",
      "created_at": "2016-07-02T09:23:30.397Z",
      "updated_at": "2016-07-02T09:23:30.397Z",
      "user_id": 2,
      "metacode_id": 36
    },
    {
      "id": 60,
      "name": "View others on map in realtime",
      "desc": "",
      "link": "",
      "permission": "commons",
      "created_at": "2016-03-31T01:20:26.734Z",
      "updated_at": "2016-03-31T01:20:26.734Z",
      "user_id": 2,
      "metacode_id": 8
    }
  ],
  "page": {
    "current_page": 1,
    "next_page": 2,
    "prev_page": 0,
    "total_pages": 249,
    "total_count": 497,
    "per": 2
  }
}
